﻿<ActionLog Created="2016-02-02T14:52:26.9294186+01:00">
  <Log>
    <Agent Created="2016-02-02T14:52:26.3744136+01:00">
      <AssemblyLog>
        <Message>Assembly</Message>
        <Version>
          <Major>1</Major>
          <Minor>0</Minor>
          <Build>5876</Build>
          <Revision>26568</Revision>
          <MajorRevision>0</MajorRevision>
          <MinorRevision>26568</MinorRevision>
        </Version>
        <Title>ActionFramework</Title>
        <ProductName>ActionFramework</ProductName>
        <CopyrightHolder>Copyright © Woxion AB 2013</CopyrightHolder>
        <CompanyName>Woxion AB</CompanyName>
      </AssemblyLog>
      <Exception>
        <ExceptionMessage>Value cannot be null.
Parameter name: type</ExceptionMessage>
        <StackTrace>   at ActionFramework.Agent.DataSource.XmlDataSource.FillActions(IActionList actionList, ActionStatus status) in C:\dev\actionframework\actionframework\ActionFramework.Agent\DataSource\XmlDataSource.cs:line 132
   at ActionFramework.Classes.ActionList..ctor(IActionDataSource dataSource) in C:\dev\actionframework\actionframework\ActionFramework\Classes\ActionList.cs:line 59
   at ActionFramework.ActionFactory.ActionList(ActionListParameters par) in C:\dev\actionframework\actionframework\ActionFramework\ActionFactory.cs:line 36
   at ActionFramework.Agent.Activator.RunActions(ActionListParameters par) in C:\dev\actionframework\actionframework\ActionFramework.Agent\Activator.cs:line 41</StackTrace>
        <Source>ActionFramework.Agent</Source>
      </Exception>
    </Agent>
  </Log>
</ActionLog>