﻿<ActionLog Created="2016-01-30T12:46:31.0789623+01:00">
  <Log>
    <Action Created="2016-01-30T12:46:31.072942+01:00" ActionId="1" ActionType="Status" Assembly="ActionFramework v.1.0.5873.22012 by Woxion AB">
      <Information>Status: OK</Information>
    </Action>
    <Action Created="2016-01-30T12:46:31.0749523+01:00" ActionId="2" ActionType="DemoAction1" Assembly="DemoApp v.1.0.0.0 by ">
      <Information>Additional Information</Information>
      <Information>Data Source=.;Database=ActionFramework;Persist Security Info=True;Trusted_Connection=true;Pooling=False</Information>
      <Warning>
        <Message>I want to add a warning as well</Message>
      </Warning>
      <CustomLog>
        <Amount>25</Amount>
        <Date>2016-01-30T11:46:31.0739434Z</Date>
        <Message>This is the custom message</Message>
      </CustomLog>
      <Information>Status: OK</Information>
    </Action>
    <Agent Created="2016-01-30T12:46:30.6929329+01:00">
      <AssemblyLog>
        <Message>Assembly</Message>
        <Version>
          <Major>1</Major>
          <Minor>0</Minor>
          <Build>5873</Build>
          <Revision>22012</Revision>
          <MajorRevision>0</MajorRevision>
          <MinorRevision>22012</MinorRevision>
        </Version>
        <Title>ActionFramework</Title>
        <ProductName>ActionFramework</ProductName>
        <CopyrightHolder>Copyright © Woxion AB 2013</CopyrightHolder>
        <CompanyName>Woxion AB</CompanyName>
      </AssemblyLog>
      <Information>ActionList Initiated. Using http://localhost:12345 server url.</Information>
      <ActionResultLog>
        <Message>Action Results</Message>
        <Total>2</Total>
        <AgentExecute>2</AgentExecute>
        <InternalActionExecute>0</InternalActionExecute>
        <Failed>0</Failed>
        <Runtime>00:00:00.00</Runtime>
      </ActionResultLog>
    </Agent>
  </Log>
</ActionLog>